{
  "tracks": {
    "href": "https://api.spotify.com/v1/search?query=As%2BTall%2BAs%2BLions&type=track&offset=0&limit=10",
    "items": [
      {
        "album": {
          "album_type": "album",
          "artists": [
            {
              "external_urls": {
                "spotify": "https://open.spotify.com/artist/1F1IdqOCO4A9kBrQihBaOI"
              },
              "href": "https://api.spotify.com/v1/artists/1F1IdqOCO4A9kBrQihBaOI",
              "id": "1F1IdqOCO4A9kBrQihBaOI",
              "name": "As Tall As Lions",
              "type": "artist",
              "uri": "spotify:artist:1F1IdqOCO4A9kBrQihBaOI"
            }
          ],
          "external_urls": {
            "spotify": "https://open.spotify.com/album/1CqzN27RBDnej4WShKVl0W"
          },
          "href": "https://api.spotify.com/v1/albums/1CqzN27RBDnej4WShKVl0W",
          "id": "1CqzN27RBDnej4WShKVl0W",
          "images": [
            {
              "height": 640,
              "url": "https://i.scdn.co/image/ab67616d0000b273050c2c1a7d3f2836b4fada42",
              "width": 640
            },
            {
              "height": 300,
              "url": "https://i.scdn.co/image/ab67616d00001e02050c2c1a7d3f2836b4fada42",
              "width": 300
            },
            {
              "height": 64,
              "url": "https://i.scdn.co/image/ab67616d00004851050c2c1a7d3f2836b4fada42",
              "width": 64
            }
          ],
          "name": "As Tall as Lions",
          "release_date": "2006-08-08",
          "release_date_precision": "day",
          "total_tracks": 10,
          "type": "album",
          "uri": "spotify:album:1CqzN27RBDnej4WShKVl0W"
        },
        "artists": [
          {
            "external_urls": {
              "spotify": "https://open.spotify.com/artist/1F1IdqOCO4A9kBrQihBaOI"
            },
            "href": "https://api.spotify.com/v1/artists/1F1IdqOCO4A9kBrQihBaOI",
            "id": "1F1IdqOCO4A9kBrQihBaOI",
            "name": "As Tall As Lions",
            "type": "artist",
            "uri": "spotify:artist:1F1IdqOCO4A9kBrQihBaOI"
          }
        ],
        "disc_number": 1,
        "duration_ms": 273080,
        "explicit": false,
        "external_ids": {
          "isrc": "US72W0610213"
        },
        "external_urls": {
          "spotify": "https://open.spotify.com/track/0kjENFsuwLGWkGYThzQDbJ"
        },
        "href": "https://api.spotify.com/v1/tracks/0kjENFsuwLGWkGYThzQDbJ",
        "id": "0kjENFsuwLGWkGYThzQDbJ",
        "is_local": false,
        "name": "Love, Love, Love (Love, Love)",
        "popularity": 38,
        "preview_url": "https://p.scdn.co/mp3-preview/e82481e6562b3d28704dddd14628623134b9b7ea?cid=774b29d4f13844c495f206cafdad9c86",
        "track_number": 4,
        "type": "track",
        "uri": "spotify:track:0kjENFsuwLGWkGYThzQDbJ"
      },
      {
        "album": {
          "album_type": "single",
          "artists": [
            {
              "external_urls": {
                "spotify": "https://open.spotify.com/artist/4CHiVarfTsFhkFOk5vHS77"
              },
              "href": "https://api.spotify.com/v1/artists/4CHiVarfTsFhkFOk5vHS77",
              "id": "4CHiVarfTsFhkFOk5vHS77",
              "name": "Marc Scibilia",
              "type": "artist",
              "uri": "spotify:artist:4CHiVarfTsFhkFOk5vHS77"
            }
          ],
          "external_urls": {
            "spotify": "https://open.spotify.com/album/4d7hWDVvQr302ZDfBT6zIo"
          },
          "href": "https://api.spotify.com/v1/albums/4d7hWDVvQr302ZDfBT6zIo",
          "id": "4d7hWDVvQr302ZDfBT6zIo",
          "images": [
            {
              "height": 640,
              "url": "https://i.scdn.co/image/ab67616d0000b27371e2343b790ed3a035a8e99d",
              "width": 640
            },
            {
              "height": 300,
              "url": "https://i.scdn.co/image/ab67616d00001e0271e2343b790ed3a035a8e99d",
              "width": 300
            },
            {
              "height": 64,
              "url": "https://i.scdn.co/image/ab67616d0000485171e2343b790ed3a035a8e99d",
              "width": 64
            }
          ],
          "name": "On The Way",
          "release_date": "2017-05-25",
          "release_date_precision": "day",
          "total_tracks": 1,
          "type": "album",
          "uri": "spotify:album:4d7hWDVvQr302ZDfBT6zIo"
        },
        "artists": [
          {
            "external_urls": {
              "spotify": "https://open.spotify.com/artist/4CHiVarfTsFhkFOk5vHS77"
            },
            "href": "https://api.spotify.com/v1/artists/4CHiVarfTsFhkFOk5vHS77",
            "id": "4CHiVarfTsFhkFOk5vHS77",
            "name": "Marc Scibilia",
            "type": "artist",
            "uri": "spotify:artist:4CHiVarfTsFhkFOk5vHS77"
          }
        ],
        "disc_number": 1,
        "duration_ms": 143378,
        "explicit": false,
        "external_ids": {
          "isrc": "USRC11701240"
        },
        "external_urls": {
          "spotify": "https://open.spotify.com/track/46moYlHanYqYJ4iHCcLLNi"
        },
        "href": "https://api.spotify.com/v1/tracks/46moYlHanYqYJ4iHCcLLNi",
        "id": "46moYlHanYqYJ4iHCcLLNi",
        "is_local": false,
        "name": "On The Way",
        "popularity": 16,
        "preview_url": "https://p.scdn.co/mp3-preview/fad8439351377bda5b2b9fc934fbce31a27756ec?cid=774b29d4f13844c495f206cafdad9c86",
        "track_number": 1,
        "type": "track",
        "uri": "spotify:track:46moYlHanYqYJ4iHCcLLNi"
      },
      {
        "album": {
          "album_type": "album",
          "artists": [
            {
              "external_urls": {
                "spotify": "https://open.spotify.com/artist/1F1IdqOCO4A9kBrQihBaOI"
              },
              "href": "https://api.spotify.com/v1/artists/1F1IdqOCO4A9kBrQihBaOI",
              "id": "1F1IdqOCO4A9kBrQihBaOI",
              "name": "As Tall As Lions",
              "type": "artist",
              "uri": "spotify:artist:1F1IdqOCO4A9kBrQihBaOI"
            }
          ],
          "external_urls": {
            "spotify": "https://open.spotify.com/album/1CqzN27RBDnej4WShKVl0W"
          },
          "href": "https://api.spotify.com/v1/albums/1CqzN27RBDnej4WShKVl0W",
          "id": "1CqzN27RBDnej4WShKVl0W",
          "images": [
            {
              "height": 640,
              "url": "https://i.scdn.co/image/ab67616d0000b273050c2c1a7d3f2836b4fada42",
              "width": 640
            },
            {
              "height": 300,
              "url": "https://i.scdn.co/image/ab67616d00001e02050c2c1a7d3f2836b4fada42",
              "width": 300
            },
            {
              "height": 64,
              "url": "https://i.scdn.co/image/ab67616d00004851050c2c1a7d3f2836b4fada42",
              "width": 64
            }
          ],
          "name": "As Tall as Lions",
          "release_date": "2006-08-08",
          "release_date_precision": "day",
          "total_tracks": 10,
          "type": "album",
          "uri": "spotify:album:1CqzN27RBDnej4WShKVl0W"
        },
        "artists": [
          {
            "external_urls": {
              "spotify": "https://open.spotify.com/artist/1F1IdqOCO4A9kBrQihBaOI"
            },
            "href": "https://api.spotify.com/v1/artists/1F1IdqOCO4A9kBrQihBaOI",
            "id": "1F1IdqOCO4A9kBrQihBaOI",
            "name": "As Tall As Lions",
            "type": "artist",
            "uri": "spotify:artist:1F1IdqOCO4A9kBrQihBaOI"
          }
        ],
        "disc_number": 1,
        "duration_ms": 246986,
        "explicit": false,
        "external_ids": {
          "isrc": "US72W0610214"
        },
        "external_urls": {
          "spotify": "https://open.spotify.com/track/2oU7f290U8riLM0ZVqhIzG"
        },
        "href": "https://api.spotify.com/v1/tracks/2oU7f290U8riLM0ZVqhIzG",
        "id": "2oU7f290U8riLM0ZVqhIzG",
        "is_local": false,
        "name": "Ghost of York",
        "popularity": 35,
        "preview_url": "https://p.scdn.co/mp3-preview/48fedbda285180c9b428313e78e98b1e4350546b?cid=774b29d4f13844c495f206cafdad9c86",
        "track_number": 5,
        "type": "track",
        "uri": "spotify:track:2oU7f290U8riLM0ZVqhIzG"
      },
      {
        "album": {
          "album_type": "album",
          "artists": [
            {
              "external_urls": {
                "spotify": "https://open.spotify.com/artist/1F1IdqOCO4A9kBrQihBaOI"
              },
              "href": "https://api.spotify.com/v1/artists/1F1IdqOCO4A9kBrQihBaOI",
              "id": "1F1IdqOCO4A9kBrQihBaOI",
              "name": "As Tall As Lions",
              "type": "artist",
              "uri": "spotify:artist:1F1IdqOCO4A9kBrQihBaOI"
            }
          ],
          "external_urls": {
            "spotify": "https://open.spotify.com/album/4J4TDolCJGWQM1FhuDQxwb"
          },
          "href": "https://api.spotify.com/v1/albums/4J4TDolCJGWQM1FhuDQxwb",
          "id": "4J4TDolCJGWQM1FhuDQxwb",
          "images": [
            {
              "height": 640,
              "url": "https://i.scdn.co/image/ab67616d0000b2738641647319ad574d7d60dbc0",
              "width": 640
            },
            {
              "height": 300,
              "url": "https://i.scdn.co/image/ab67616d00001e028641647319ad574d7d60dbc0",
              "width": 300
            },
            {
              "height": 64,
              "url": "https://i.scdn.co/image/ab67616d000048518641647319ad574d7d60dbc0",
              "width": 64
            }
          ],
          "name": "You Can't Take It with You",
          "release_date": "2009",
          "release_date_precision": "year",
          "total_tracks": 11,
          "type": "album",
          "uri": "spotify:album:4J4TDolCJGWQM1FhuDQxwb"
        },
        "artists": [
          {
            "external_urls": {
              "spotify": "https://open.spotify.com/artist/1F1IdqOCO4A9kBrQihBaOI"
            },
            "href": "https://api.spotify.com/v1/artists/1F1IdqOCO4A9kBrQihBaOI",
            "id": "1F1IdqOCO4A9kBrQihBaOI",
            "name": "As Tall As Lions",
            "type": "artist",
            "uri": "spotify:artist:1F1IdqOCO4A9kBrQihBaOI"
          }
        ],
        "disc_number": 1,
        "duration_ms": 498733,
        "explicit": false,
        "external_ids": {
          "isrc": "US72W0910402"
        },
        "external_urls": {
          "spotify": "https://open.spotify.com/track/0seuxw8VhPtF7MBVeB7ptn"
        },
        "href": "https://api.spotify.com/v1/tracks/0seuxw8VhPtF7MBVeB7ptn",
        "id": "0seuxw8VhPtF7MBVeB7ptn",
        "is_local": false,
        "name": "Duermete",
        "popularity": 33,
        "preview_url": "https://p.scdn.co/mp3-preview/4e0856c1bbd522d5a9ff478d5e9df908c4257b3c?cid=774b29d4f13844c495f206cafdad9c86",
        "track_number": 5,
        "type": "track",
        "uri": "spotify:track:0seuxw8VhPtF7MBVeB7ptn"
      },
      {
        "album": {
          "album_type": "album",
          "artists": [
            {
              "external_urls": {
                "spotify": "https://open.spotify.com/artist/1F1IdqOCO4A9kBrQihBaOI"
              },
              "href": "https://api.spotify.com/v1/artists/1F1IdqOCO4A9kBrQihBaOI",
              "id": "1F1IdqOCO4A9kBrQihBaOI",
              "name": "As Tall As Lions",
              "type": "artist",
              "uri": "spotify:artist:1F1IdqOCO4A9kBrQihBaOI"
            }
          ],
          "external_urls": {
            "spotify": "https://open.spotify.com/album/1CqzN27RBDnej4WShKVl0W"
          },
          "href": "https://api.spotify.com/v1/albums/1CqzN27RBDnej4WShKVl0W",
          "id": "1CqzN27RBDnej4WShKVl0W",
          "images": [
            {
              "height": 640,
              "url": "https://i.scdn.co/image/ab67616d0000b273050c2c1a7d3f2836b4fada42",
              "width": 640
            },
            {
              "height": 300,
              "url": "https://i.scdn.co/image/ab67616d00001e02050c2c1a7d3f2836b4fada42",
              "width": 300
            },
            {
              "height": 64,
              "url": "https://i.scdn.co/image/ab67616d00004851050c2c1a7d3f2836b4fada42",
              "width": 64
            }
          ],
          "name": "As Tall as Lions",
          "release_date": "2006-08-08",
          "release_date_precision": "day",
          "total_tracks": 10,
          "type": "album",
          "uri": "spotify:album:1CqzN27RBDnej4WShKVl0W"
        },
        "artists": [
          {
            "external_urls": {
              "spotify": "https://open.spotify.com/artist/1F1IdqOCO4A9kBrQihBaOI"
            },
            "href": "https://api.spotify.com/v1/artists/1F1IdqOCO4A9kBrQihBaOI",
            "id": "1F1IdqOCO4A9kBrQihBaOI",
            "name": "As Tall As Lions",
            "type": "artist",
            "uri": "spotify:artist:1F1IdqOCO4A9kBrQihBaOI"
          }
        ],
        "disc_number": 1,
        "duration_ms": 216413,
        "explicit": false,
        "external_ids": {
          "isrc": "US72W0610210"
        },
        "external_urls": {
          "spotify": "https://open.spotify.com/track/5XtvFhNaF3wsXB8qVaMugM"
        },
        "href": "https://api.spotify.com/v1/tracks/5XtvFhNaF3wsXB8qVaMugM",
        "id": "5XtvFhNaF3wsXB8qVaMugM",
        "is_local": false,
        "name": "Stab City",
        "popularity": 30,
        "preview_url": "https://p.scdn.co/mp3-preview/030278c1eb6b6d7437e6fd027df2a59bd865b6d5?cid=774b29d4f13844c495f206cafdad9c86",
        "track_number": 1,
        "type": "track",
        "uri": "spotify:track:5XtvFhNaF3wsXB8qVaMugM"
      },
      {
        "album": {
          "album_type": "album",
          "artists": [
            {
              "external_urls": {
                "spotify": "https://open.spotify.com/artist/1F1IdqOCO4A9kBrQihBaOI"
              },
              "href": "https://api.spotify.com/v1/artists/1F1IdqOCO4A9kBrQihBaOI",
              "id": "1F1IdqOCO4A9kBrQihBaOI",
              "name": "As Tall As Lions",
              "type": "artist",
              "uri": "spotify:artist:1F1IdqOCO4A9kBrQihBaOI"
            }
          ],
          "external_urls": {
            "spotify": "https://open.spotify.com/album/1CqzN27RBDnej4WShKVl0W"
          },
          "href": "https://api.spotify.com/v1/albums/1CqzN27RBDnej4WShKVl0W",
          "id": "1CqzN27RBDnej4WShKVl0W",
          "images": [
            {
              "height": 640,
              "url": "https://i.scdn.co/image/ab67616d0000b273050c2c1a7d3f2836b4fada42",
              "width": 640
            },
            {
              "height": 300,
              "url": "https://i.scdn.co/image/ab67616d00001e02050c2c1a7d3f2836b4fada42",
              "width": 300
            },
            {
              "height": 64,
              "url": "https://i.scdn.co/image/ab67616d00004851050c2c1a7d3f2836b4fada42",
              "width": 64
            }
          ],
          "name": "As Tall as Lions",
          "release_date": "2006-08-08",
          "release_date_precision": "day",
          "total_tracks": 10,
          "type": "album",
          "uri": "spotify:album:1CqzN27RBDnej4WShKVl0W"
        },
        "artists": [
          {
            "external_urls": {
              "spotify": "https://open.spotify.com/artist/1F1IdqOCO4A9kBrQihBaOI"
            },
            "href": "https://api.spotify.com/v1/artists/1F1IdqOCO4A9kBrQihBaOI",
            "id": "1F1IdqOCO4A9kBrQihBaOI",
            "name": "As Tall As Lions",
            "type": "artist",
            "uri": "spotify:artist:1F1IdqOCO4A9kBrQihBaOI"
          }
        ],
        "disc_number": 1,
        "duration_ms": 630373,
        "explicit": false,
        "external_ids": {
          "isrc": "US72W0610219"
        },
        "external_urls": {
          "spotify": "https://open.spotify.com/track/6sS8NSzylo8IFUfD3NfpL7"
        },
        "href": "https://api.spotify.com/v1/tracks/6sS8NSzylo8IFUfD3NfpL7",
        "id": "6sS8NSzylo8IFUfD3NfpL7",
        "is_local": false,
        "name": "Maybe I'm Just Tired",
        "popularity": 29,
        "preview_url": "https://p.scdn.co/mp3-preview/f1e7970ea2938032051ff2d4093027053114a74d?cid=774b29d4f13844c495f206cafdad9c86",
        "track_number": 10,
        "type": "track",
        "uri": "spotify:track:6sS8NSzylo8IFUfD3NfpL7"
      },
      {
        "album": {
          "album_type": "album",
          "artists": [
            {
              "external_urls": {
                "spotify": "https://open.spotify.com/artist/1F1IdqOCO4A9kBrQihBaOI"
              },
              "href": "https://api.spotify.com/v1/artists/1F1IdqOCO4A9kBrQihBaOI",
              "id": "1F1IdqOCO4A9kBrQihBaOI",
              "name": "As Tall As Lions",
              "type": "artist",
              "uri": "spotify:artist:1F1IdqOCO4A9kBrQihBaOI"
            }
          ],
          "external_urls": {
            "spotify": "https://open.spotify.com/album/4J4TDolCJGWQM1FhuDQxwb"
          },
          "href": "https://api.spotify.com/v1/albums/4J4TDolCJGWQM1FhuDQxwb",
          "id": "4J4TDolCJGWQM1FhuDQxwb",
          "images": [
            {
              "height": 640,
              "url": "https://i.scdn.co/image/ab67616d0000b2738641647319ad574d7d60dbc0",
              "width": 640
            },
            {
              "height": 300,
              "url": "https://i.scdn.co/image/ab67616d00001e028641647319ad574d7d60dbc0",
              "width": 300
            },
            {
              "height": 64,
              "url": "https://i.scdn.co/image/ab67616d000048518641647319ad574d7d60dbc0",
              "width": 64
            }
          ],
          "name": "You Can't Take It with You",
          "release_date": "2009",
          "release_date_precision": "year",
          "total_tracks": 11,
          "type": "album",
          "uri": "spotify:album:4J4TDolCJGWQM1FhuDQxwb"
        },
        "artists": [
          {
            "external_urls": {
              "spotify": "https://open.spotify.com/artist/1F1IdqOCO4A9kBrQihBaOI"
            },
            "href": "https://api.spotify.com/v1/artists/1F1IdqOCO4A9kBrQihBaOI",
            "id": "1F1IdqOCO4A9kBrQihBaOI",
            "name": "As Tall As Lions",
            "type": "artist",
            "uri": "spotify:artist:1F1IdqOCO4A9kBrQihBaOI"
          }
        ],
        "disc_number": 1,
        "duration_ms": 258200,
        "explicit": false,
        "external_ids": {
          "isrc": "US72W0910398"
        },
        "external_urls": {
          "spotify": "https://open.spotify.com/track/0OXG9C3DUm6a7EINTIgaJ8"
        },
        "href": "https://api.spotify.com/v1/tracks/0OXG9C3DUm6a7EINTIgaJ8",
        "id": "0OXG9C3DUm6a7EINTIgaJ8",
        "is_local": false,
        "name": "Circles",
        "popularity": 28,
        "preview_url": "https://p.scdn.co/mp3-preview/d8ef81f6199d15b7ed063e40a62ecd22253dcc0c?cid=774b29d4f13844c495f206cafdad9c86",
        "track_number": 1,
        "type": "track",
        "uri": "spotify:track:0OXG9C3DUm6a7EINTIgaJ8"
      },
      {
        "album": {
          "album_type": "album",
          "artists": [
            {
              "external_urls": {
                "spotify": "https://open.spotify.com/artist/1F1IdqOCO4A9kBrQihBaOI"
              },
              "href": "https://api.spotify.com/v1/artists/1F1IdqOCO4A9kBrQihBaOI",
              "id": "1F1IdqOCO4A9kBrQihBaOI",
              "name": "As Tall As Lions",
              "type": "artist",
              "uri": "spotify:artist:1F1IdqOCO4A9kBrQihBaOI"
            }
          ],
          "external_urls": {
            "spotify": "https://open.spotify.com/album/1CqzN27RBDnej4WShKVl0W"
          },
          "href": "https://api.spotify.com/v1/albums/1CqzN27RBDnej4WShKVl0W",
          "id": "1CqzN27RBDnej4WShKVl0W",
          "images": [
            {
              "height": 640,
              "url": "https://i.scdn.co/image/ab67616d0000b273050c2c1a7d3f2836b4fada42",
              "width": 640
            },
            {
              "height": 300,
              "url": "https://i.scdn.co/image/ab67616d00001e02050c2c1a7d3f2836b4fada42",
              "width": 300
            },
            {
              "height": 64,
              "url": "https://i.scdn.co/image/ab67616d00004851050c2c1a7d3f2836b4fada42",
              "width": 64
            }
          ],
          "name": "As Tall as Lions",
          "release_date": "2006-08-08",
          "release_date_precision": "day",
          "total_tracks": 10,
          "type": "album",
          "uri": "spotify:album:1CqzN27RBDnej4WShKVl0W"
        },
        "artists": [
          {
            "external_urls": {
              "spotify": "https://open.spotify.com/artist/1F1IdqOCO4A9kBrQihBaOI"
            },
            "href": "https://api.spotify.com/v1/artists/1F1IdqOCO4A9kBrQihBaOI",
            "id": "1F1IdqOCO4A9kBrQihBaOI",
            "name": "As Tall As Lions",
            "type": "artist",
            "uri": "spotify:artist:1F1IdqOCO4A9kBrQihBaOI"
          }
        ],
        "disc_number": 1,
        "duration_ms": 224920,
        "explicit": false,
        "external_ids": {
          "isrc": "US72W0610211"
        },
        "external_urls": {
          "spotify": "https://open.spotify.com/track/2SycDKk1EXJCe3uv88iYok"
        },
        "href": "https://api.spotify.com/v1/tracks/2SycDKk1EXJCe3uv88iYok",
        "id": "2SycDKk1EXJCe3uv88iYok",
        "is_local": false,
        "name": "Song for Luna",
        "popularity": 27,
        "preview_url": "https://p.scdn.co/mp3-preview/49a1d71f87d3d701195db18e3d904b138c854a33?cid=774b29d4f13844c495f206cafdad9c86",
        "track_number": 2,
        "type": "track",
        "uri": "spotify:track:2SycDKk1EXJCe3uv88iYok"
      },
      {
        "album": {
          "album_type": "album",
          "artists": [
            {
              "external_urls": {
                "spotify": "https://open.spotify.com/artist/1F1IdqOCO4A9kBrQihBaOI"
              },
              "href": "https://api.spotify.com/v1/artists/1F1IdqOCO4A9kBrQihBaOI",
              "id": "1F1IdqOCO4A9kBrQihBaOI",
              "name": "As Tall As Lions",
              "type": "artist",
              "uri": "spotify:artist:1F1IdqOCO4A9kBrQihBaOI"
            }
          ],
          "external_urls": {
            "spotify": "https://open.spotify.com/album/1CqzN27RBDnej4WShKVl0W"
          },
          "href": "https://api.spotify.com/v1/albums/1CqzN27RBDnej4WShKVl0W",
          "id": "1CqzN27RBDnej4WShKVl0W",
          "images": [
            {
              "height": 640,
              "url": "https://i.scdn.co/image/ab67616d0000b273050c2c1a7d3f2836b4fada42",
              "width": 640
            },
            {
              "height": 300,
              "url": "https://i.scdn.co/image/ab67616d00001e02050c2c1a7d3f2836b4fada42",
              "width": 300
            },
            {
              "height": 64,
              "url": "https://i.scdn.co/image/ab67616d00004851050c2c1a7d3f2836b4fada42",
              "width": 64
            }
          ],
          "name": "As Tall as Lions",
          "release_date": "2006-08-08",
          "release_date_precision": "day",
          "total_tracks": 10,
          "type": "album",
          "uri": "spotify:album:1CqzN27RBDnej4WShKVl0W"
        },
        "artists": [
          {
            "external_urls": {
              "spotify": "https://open.spotify.com/artist/1F1IdqOCO4A9kBrQihBaOI"
            },
            "href": "https://api.spotify.com/v1/artists/1F1IdqOCO4A9kBrQihBaOI",
            "id": "1F1IdqOCO4A9kBrQihBaOI",
            "name": "As Tall As Lions",
            "type": "artist",
            "uri": "spotify:artist:1F1IdqOCO4A9kBrQihBaOI"
          }
        ],
        "disc_number": 1,
        "duration_ms": 274253,
        "explicit": false,
        "external_ids": {
          "isrc": "US72W0610215"
        },
        "external_urls": {
          "spotify": "https://open.spotify.com/track/3INFBXAoAGZWdcC4stulRx"
        },
        "href": "https://api.spotify.com/v1/tracks/3INFBXAoAGZWdcC4stulRx",
        "id": "3INFBXAoAGZWdcC4stulRx",
        "is_local": false,
        "name": "Milk and Honey",
        "popularity": 26,
        "preview_url": "https://p.scdn.co/mp3-preview/20aead696f781c99005e54be4a9deecfd3875ab2?cid=774b29d4f13844c495f206cafdad9c86",
        "track_number": 6,
        "type": "track",
        "uri": "spotify:track:3INFBXAoAGZWdcC4stulRx"
      },
      {
        "album": {
          "album_type": "album",
          "artists": [
            {
              "external_urls": {
                "spotify": "https://open.spotify.com/artist/1F1IdqOCO4A9kBrQihBaOI"
              },
              "href": "https://api.spotify.com/v1/artists/1F1IdqOCO4A9kBrQihBaOI",
              "id": "1F1IdqOCO4A9kBrQihBaOI",
              "name": "As Tall As Lions",
              "type": "artist",
              "uri": "spotify:artist:1F1IdqOCO4A9kBrQihBaOI"
            }
          ],
          "external_urls": {
            "spotify": "https://open.spotify.com/album/1CqzN27RBDnej4WShKVl0W"
          },
          "href": "https://api.spotify.com/v1/albums/1CqzN27RBDnej4WShKVl0W",
          "id": "1CqzN27RBDnej4WShKVl0W",
          "images": [
            {
              "height": 640,
              "url": "https://i.scdn.co/image/ab67616d0000b273050c2c1a7d3f2836b4fada42",
              "width": 640
            },
            {
              "height": 300,
              "url": "https://i.scdn.co/image/ab67616d00001e02050c2c1a7d3f2836b4fada42",
              "width": 300
            },
            {
              "height": 64,
              "url": "https://i.scdn.co/image/ab67616d00004851050c2c1a7d3f2836b4fada42",
              "width": 64
            }
          ],
          "name": "As Tall as Lions",
          "release_date": "2006-08-08",
          "release_date_precision": "day",
          "total_tracks": 10,
          "type": "album",
          "uri": "spotify:album:1CqzN27RBDnej4WShKVl0W"
        },
        "artists": [
          {
            "external_urls": {
              "spotify": "https://open.spotify.com/artist/1F1IdqOCO4A9kBrQihBaOI"
            },
            "href": "https://api.spotify.com/v1/artists/1F1IdqOCO4A9kBrQihBaOI",
            "id": "1F1IdqOCO4A9kBrQihBaOI",
            "name": "As Tall As Lions",
            "type": "artist",
            "uri": "spotify:artist:1F1IdqOCO4A9kBrQihBaOI"
          }
        ],
        "disc_number": 1,
        "duration_ms": 220440,
        "explicit": false,
        "external_ids": {
          "isrc": "US72W0610212"
        },
        "external_urls": {
          "spotify": "https://open.spotify.com/track/3jeSkuQS7yyiHVJZoTQVup"
        },
        "href": "https://api.spotify.com/v1/tracks/3jeSkuQS7yyiHVJZoTQVup",
        "id": "3jeSkuQS7yyiHVJZoTQVup",
        "is_local": false,
        "name": "A Break, A Pause",
        "popularity": 25,
        "preview_url": "https://p.scdn.co/mp3-preview/8d9b05b08ac0258a0b484f7757c17e4b61cbbbc5?cid=774b29d4f13844c495f206cafdad9c86",
        "track_number": 3,
        "type": "track",
        "uri": "spotify:track:3jeSkuQS7yyiHVJZoTQVup"
      }
    ],
    "limit": 10,
    "next": "https://api.spotify.com/v1/search?query=As%2BTall%2BAs%2BLions&type=track&offset=10&limit=10",
    "offset": 0,
    "previous": null,
    "total": 11
  }
}